Using the Tesseract OCR engine in R • cpp11tesseract
…
The ocr_data() function returns all words in the image along with a bounding box and confidence rate.

results <- ocr_data(file, engine = eng)
results

## # A tibble: 273 × 4
##    word        confidence bbox          stringsAsFactors
##    <chr>            <dbl> <chr>         <lgl>           
##  1 Act               96.7 196,27,231,44 FALSE           
##  2 One               96.9 238,27,278,44 FALSE           
##  3 [The              68.0 8,70,38,84    FALSE           
##  4 living            96.7 46,70,81,87   FALSE           
##  5 room              96.1 88,75,120,84  FALSE           
##  6 of                96.1 128,70,143,87 FALSE           
##  7 Algernon          64.6 148,70,208,87 FALSE           
##  8 Moncrieff's       50.1 216,71,289,88 FALSE           
##  9 flat              96.1 296,71,318,88 FALSE           
## 10 in                92.1 325,73,337,85 FALSE           
## # ℹ 263 more rows
…
